action,timestamp
services.TransactionService$1.getTransactions,2019-04-29 16:03:07.988
services.RatesService$3.getRONrates,2019-04-29 16:07:19.719
services.CurencyService$3.getCurency,2019-04-29 17:35:37.953
services.DatabaseService$1.connect,2019-04-29 17:35:37.965
services.CurencyService$3.getCurency,2019-04-29 17:36:12.757
services.DatabaseService$1.connect,2019-04-29 17:36:12.767
services.CurencyService$3.getCurency,2019-04-29 17:36:31.967
services.DatabaseService$1.connect,2019-04-29 17:36:31.975
services.ClientService$1.getAllClients,2019-04-29 18:00:59.838
services.DatabaseService$1.connect,2019-04-29 18:00:59.84
services.ClientService$3.getClient,2019-04-29 18:01:08.093
services.DatabaseService$1.connect,2019-04-29 18:01:08.093
services.CurencyService$1.getAllCurencies,2019-04-29 18:01:16.111
services.DatabaseService$1.connect,2019-04-29 18:01:16.112
services.CurencyService$3.getCurency,2019-04-29 18:01:24.692
services.DatabaseService$1.connect,2019-04-29 18:01:24.693
services.RatesService$1.getRateFor,2019-04-29 18:02:03.886
services.RatesService$3.getRONrates,2019-04-29 18:02:19.733
services.TransactionService$1.getAllTransactions,2019-04-29 18:02:57.362
services.DatabaseService$1.connect,2019-04-29 18:02:57.363
services.TransactionService$3.getTransactions,2019-04-29 18:03:17.219
services.DatabaseService$1.connect,2019-04-29 18:03:17.219
services.TransactionService$5.addTransaction,2019-04-29 18:03:58.745
services.DatabaseService$1.connect,2019-04-29 18:03:58.747
services.TransactionService$1.getAllTransactions,2019-04-29 18:04:09.949
services.DatabaseService$1.connect,2019-04-29 18:04:09.95
services.TransactionService$3.getTransactions,2019-04-29 18:04:31.556
services.DatabaseService$1.connect,2019-04-29 18:04:31.556
services.TransactionService$1.getAllTransactions,2019-04-29 18:15:32.343
services.DatabaseService$1.connect,2019-04-29 18:15:32.346
services.TransactionService$1.getAllTransactions,2019-04-29 18:15:37.942
services.DatabaseService$1.connect,2019-04-29 18:15:37.942
services.TransactionService$1.getAllTransactions,2019-04-29 18:15:41.238
services.DatabaseService$1.connect,2019-04-29 18:15:41.238
services.TransactionService$3.getTransactions,2019-04-29 18:17:39.313
services.DatabaseService$1.connect,2019-04-29 18:17:39.317
services.TransactionService$3.getTransactions,2019-04-29 18:18:27.636
services.DatabaseService$1.connect,2019-04-29 18:18:27.639
services.TransactionService$3.getTransactions,2019-04-29 18:19:13.026
services.DatabaseService$1.connect,2019-04-29 18:19:13.029
services.TransactionService$3.getTransactions,2019-04-29 18:19:25.549
services.DatabaseService$1.connect,2019-04-29 18:19:25.549
services.TransactionService$1.getAllTransactions,2019-04-29 18:30:56.415
services.DatabaseService$1.connect,2019-04-29 18:30:56.417
services.TransactionService$3.getTransactions,2019-04-29 20:24:56.043
services.DatabaseService$1.connect,2019-04-29 20:24:56.046
services.TransactionService$5.addTransaction,2019-04-29 20:25:21.403
services.DatabaseService$1.connect,2019-04-29 20:25:21.404
services.TransactionService$3.getTransactions,2019-04-29 20:25:37.329
services.DatabaseService$1.connect,2019-04-29 20:25:37.329
services.TransactionService$5.addTransaction,2019-04-29 20:26:57.561
services.DatabaseService$1.connect,2019-04-29 20:26:57.564
services.TransactionService$3.getTransactions,2019-04-29 20:27:05.428
services.DatabaseService$1.connect,2019-04-29 20:27:05.428
services.TransactionService$1.getAllTransactions,2019-04-29 22:34:03.085
services.DatabaseService$1.connect,2019-04-29 22:34:03.089
services.TransactionService$1.getAllTransactions,2019-04-29 22:35:15.043
services.DatabaseService$1.connect,2019-04-29 22:35:15.046
services.TransactionService$1.getAllTransactions,2019-04-29 22:35:51.455
services.DatabaseService$1.connect,2019-04-29 22:35:51.458
services.TransactionService$1.getAllTransactions,2019-04-29 22:35:51.804
services.DatabaseService$1.connect,2019-04-29 22:35:51.805
services.TransactionService$1.getAllTransactions,2019-04-29 22:37:09.065
services.DatabaseService$1.connect,2019-04-29 22:37:09.068
services.TransactionService$1.getAllTransactions,2019-04-29 22:37:09.48
services.DatabaseService$1.connect,2019-04-29 22:37:09.48
services.TransactionService$1.getAllTransactions,2019-04-29 22:37:35.296
services.DatabaseService$1.connect,2019-04-29 22:37:35.299
services.TransactionService$1.getAllTransactions,2019-04-29 22:37:35.564
services.DatabaseService$1.connect,2019-04-29 22:37:35.565
services.TransactionService$1.getAllTransactions,2019-04-29 22:38:36.109
services.DatabaseService$1.connect,2019-04-29 22:38:36.113
services.TransactionService$1.getAllTransactions,2019-04-29 22:38:36.338
services.DatabaseService$1.connect,2019-04-29 22:38:36.339
services.TransactionService$1.getAllTransactions,2019-04-29 22:38:44.864
services.DatabaseService$1.connect,2019-04-29 22:38:44.864
services.TransactionService$1.getAllTransactions,2019-04-29 22:38:45.14
services.DatabaseService$1.connect,2019-04-29 22:38:45.141
services.TransactionService$1.getAllTransactions,2019-04-29 22:38:55.511
services.DatabaseService$1.connect,2019-04-29 22:38:55.512
services.TransactionService$1.getAllTransactions,2019-04-29 22:38:55.672
services.DatabaseService$1.connect,2019-04-29 22:38:55.672
services.TransactionService$1.getAllTransactions,2019-04-29 22:38:57.857
services.DatabaseService$1.connect,2019-04-29 22:38:57.858
services.TransactionService$1.getAllTransactions,2019-04-29 22:38:58.016
services.DatabaseService$1.connect,2019-04-29 22:38:58.016
services.TransactionService$1.getAllTransactions,2019-04-29 22:39:42.867
services.DatabaseService$1.connect,2019-04-29 22:39:42.868
services.TransactionService$1.getAllTransactions,2019-04-29 22:39:43.227
services.DatabaseService$1.connect,2019-04-29 22:39:43.227
services.TransactionService$1.getAllTransactions,2019-04-29 22:39:58.021
services.DatabaseService$1.connect,2019-04-29 22:39:58.022
services.TransactionService$1.getAllTransactions,2019-04-29 22:39:58.194
services.DatabaseService$1.connect,2019-04-29 22:39:58.194
services.TransactionService$1.getAllTransactions,2019-04-29 22:40:03.001
services.DatabaseService$1.connect,2019-04-29 22:40:03.001
services.TransactionService$1.getAllTransactions,2019-04-29 22:40:03.23
services.DatabaseService$1.connect,2019-04-29 22:40:03.23
services.TransactionService$1.getAllTransactions,2019-04-29 22:42:17.345
services.DatabaseService$1.connect,2019-04-29 22:42:17.349
services.TransactionService$1.getAllTransactions,2019-04-29 22:42:17.681
services.DatabaseService$1.connect,2019-04-29 22:42:17.682
services.TransactionService$1.getAllTransactions,2019-04-29 22:46:32.057
services.DatabaseService$1.connect,2019-04-29 22:46:32.06
services.TransactionService$1.getAllTransactions,2019-04-29 22:46:32.307
services.DatabaseService$1.connect,2019-04-29 22:46:32.308
services.ClientService$1.getAllClients,2019-04-29 22:46:34.225
services.DatabaseService$1.connect,2019-04-29 22:46:34.225
services.CurencyService$5.getCurency,2019-04-29 22:53:18.472
services.DatabaseService$1.connect,2019-04-29 22:53:18.475
services.CurencyService$5.getCurency,2019-04-29 22:53:25.219
services.DatabaseService$1.connect,2019-04-29 22:53:25.22
services.CurencyService$5.getCurency,2019-04-29 22:53:27.802
services.DatabaseService$1.connect,2019-04-29 22:53:27.803
services.CurencyService$3.getCurency,2019-04-29 22:53:28.539
services.DatabaseService$1.connect,2019-04-29 22:53:28.539
services.CurencyService$3.getCurency,2019-04-29 22:53:28.997
services.DatabaseService$1.connect,2019-04-29 22:53:28.997
services.CurencyService$3.getCurency,2019-04-29 22:53:31.627
services.DatabaseService$1.connect,2019-04-29 22:53:31.627
services.CurencyService$5.getCurency,2019-04-29 22:53:31.875
services.DatabaseService$1.connect,2019-04-29 22:53:31.875
services.CurencyService$3.getCurency,2019-04-29 22:53:33.599
services.DatabaseService$1.connect,2019-04-29 22:53:33.599
services.CurencyService$3.getCurency,2019-04-29 22:53:36.629
services.DatabaseService$1.connect,2019-04-29 22:53:36.629
services.CurencyService$3.getCurency,2019-04-29 22:53:38.437
services.DatabaseService$1.connect,2019-04-29 22:53:38.438
services.TransactionService$1.getAllTransactions,2019-04-29 22:54:49.987
services.DatabaseService$1.connect,2019-04-29 22:54:49.999
services.TransactionService$1.getAllTransactions,2019-04-29 22:55:16.534
services.DatabaseService$1.connect,2019-04-29 22:55:16.536
services.TransactionService$1.getAllTransactions,2019-04-29 22:55:17.229
services.DatabaseService$1.connect,2019-04-29 22:55:17.229
services.TransactionService$1.getAllTransactions,2019-04-29 23:04:01.643
services.DatabaseService$1.connect,2019-04-29 23:04:01.645
services.TransactionService$1.getAllTransactions,2019-04-29 23:04:02.237
services.DatabaseService$1.connect,2019-04-29 23:04:02.237
services.TransactionService$1.getAllTransactions,2019-04-29 23:06:05.376
services.DatabaseService$1.connect,2019-04-29 23:06:05.378
services.TransactionService$1.getAllTransactions,2019-04-29 23:06:05.835
services.DatabaseService$1.connect,2019-04-29 23:06:05.835
services.TransactionService$1.getAllTransactions,2019-04-29 23:06:56.93
services.DatabaseService$1.connect,2019-04-29 23:06:56.933
services.TransactionService$1.getAllTransactions,2019-04-29 23:06:57.234
services.DatabaseService$1.connect,2019-04-29 23:06:57.234
services.TransactionService$1.getAllTransactions,2019-04-29 23:07:33.055
services.DatabaseService$1.connect,2019-04-29 23:07:33.056
services.TransactionService$1.getAllTransactions,2019-04-29 23:07:33.603
services.DatabaseService$1.connect,2019-04-29 23:07:33.604
services.TransactionService$1.getAllTransactions,2019-04-29 23:08:05.811
services.DatabaseService$1.connect,2019-04-29 23:08:05.812
services.TransactionService$1.getAllTransactions,2019-04-29 23:08:06.082
services.DatabaseService$1.connect,2019-04-29 23:08:06.083
services.TransactionService$1.getAllTransactions,2019-04-29 23:08:57.776
services.DatabaseService$1.connect,2019-04-29 23:08:57.78
services.TransactionService$1.getAllTransactions,2019-04-29 23:08:58.042
services.DatabaseService$1.connect,2019-04-29 23:08:58.044
services.TransactionService$1.getAllTransactions,2019-04-29 23:11:48.558
services.DatabaseService$1.connect,2019-04-29 23:11:48.564
services.TransactionService$1.getAllTransactions,2019-04-29 23:11:48.954
services.DatabaseService$1.connect,2019-04-29 23:11:48.955
services.TransactionService$1.getAllTransactions,2019-04-29 23:12:17.866
services.DatabaseService$1.connect,2019-04-29 23:12:17.869
services.TransactionService$1.getAllTransactions,2019-04-29 23:12:18.165
services.DatabaseService$1.connect,2019-04-29 23:12:18.166
services.TransactionService$1.getAllTransactions,2019-04-29 23:12:38.865
services.DatabaseService$1.connect,2019-04-29 23:12:38.866
services.TransactionService$1.getAllTransactions,2019-04-29 23:12:39.39
services.DatabaseService$1.connect,2019-04-29 23:12:39.39
services.TransactionService$1.getAllTransactions,2019-04-29 23:12:46.541
services.DatabaseService$1.connect,2019-04-29 23:12:46.544
services.TransactionService$1.getAllTransactions,2019-04-29 23:12:47.105
services.DatabaseService$1.connect,2019-04-29 23:12:47.105
services.TransactionService$1.getAllTransactions,2019-04-29 23:13:05.715
services.DatabaseService$1.connect,2019-04-29 23:13:05.716
services.TransactionService$1.getAllTransactions,2019-04-29 23:13:05.945
services.DatabaseService$1.connect,2019-04-29 23:13:05.945
services.ClientService$3.getClient,2019-04-29 23:13:06.212
services.DatabaseService$1.connect,2019-04-29 23:13:06.214
services.TransactionService$1.getAllTransactions,2019-04-29 23:13:25.853
services.DatabaseService$1.connect,2019-04-29 23:13:25.854
services.ClientService$3.getClient,2019-04-29 23:13:26.089
services.DatabaseService$1.connect,2019-04-29 23:13:26.089
services.TransactionService$1.getAllTransactions,2019-04-29 23:13:26.098
services.DatabaseService$1.connect,2019-04-29 23:13:26.098
services.TransactionService$1.getAllTransactions,2019-04-29 23:13:31.557
services.DatabaseService$1.connect,2019-04-29 23:13:31.558
services.ClientService$3.getClient,2019-04-29 23:13:31.561
services.DatabaseService$1.connect,2019-04-29 23:13:31.561
services.ClientService$3.getClient,2019-04-29 23:13:31.845
services.TransactionService$1.getAllTransactions,2019-04-29 23:13:31.844
services.DatabaseService$1.connect,2019-04-29 23:13:31.845
services.DatabaseService$1.connect,2019-04-29 23:13:31.845
services.TransactionService$1.getAllTransactions,2019-04-29 23:13:39.256
services.DatabaseService$1.connect,2019-04-29 23:13:39.256
services.ClientService$3.getClient,2019-04-29 23:13:39.257
services.DatabaseService$1.connect,2019-04-29 23:13:39.257
services.TransactionService$1.getAllTransactions,2019-04-29 23:13:39.491
services.DatabaseService$1.connect,2019-04-29 23:13:39.492
services.ClientService$3.getClient,2019-04-29 23:13:39.494
services.DatabaseService$1.connect,2019-04-29 23:13:39.494
services.TransactionService$1.getAllTransactions,2019-04-29 23:13:58.859
services.ClientService$3.getClient,2019-04-29 23:13:58.859
services.DatabaseService$1.connect,2019-04-29 23:13:58.859
services.DatabaseService$1.connect,2019-04-29 23:13:58.86
services.TransactionService$1.getAllTransactions,2019-04-29 23:13:59.084
services.DatabaseService$1.connect,2019-04-29 23:13:59.085
services.ClientService$3.getClient,2019-04-29 23:13:59.088
services.DatabaseService$1.connect,2019-04-29 23:13:59.089
services.TransactionService$1.getAllTransactions,2019-04-29 23:14:12.17
services.ClientService$3.getClient,2019-04-29 23:14:12.176
services.DatabaseService$1.connect,2019-04-29 23:14:12.177
services.DatabaseService$1.connect,2019-04-29 23:14:12.176
services.TransactionService$1.getAllTransactions,2019-04-29 23:14:12.447
services.DatabaseService$1.connect,2019-04-29 23:14:12.448
services.ClientService$3.getClient,2019-04-29 23:14:12.449
services.DatabaseService$1.connect,2019-04-29 23:14:12.45
services.TransactionService$1.getAllTransactions,2019-04-29 23:14:23.408
services.DatabaseService$1.connect,2019-04-29 23:14:23.412
services.ClientService$3.getClient,2019-04-29 23:14:23.448
services.DatabaseService$1.connect,2019-04-29 23:14:23.453
services.TransactionService$1.getAllTransactions,2019-04-29 23:14:23.836
services.DatabaseService$1.connect,2019-04-29 23:14:23.839
services.ClientService$3.getClient,2019-04-29 23:14:23.849
services.DatabaseService$1.connect,2019-04-29 23:14:23.849
services.TransactionService$1.getAllTransactions,2019-04-29 23:14:30.343
services.DatabaseService$1.connect,2019-04-29 23:14:30.344
services.ClientService$3.getClient,2019-04-29 23:14:30.344
services.DatabaseService$1.connect,2019-04-29 23:14:30.345
services.TransactionService$1.getAllTransactions,2019-04-29 23:14:30.559
services.DatabaseService$1.connect,2019-04-29 23:14:30.56
services.ClientService$3.getClient,2019-04-29 23:14:30.562
services.DatabaseService$1.connect,2019-04-29 23:14:30.562
services.TransactionService$1.getAllTransactions,2019-04-29 23:14:33.425
services.DatabaseService$1.connect,2019-04-29 23:14:33.425
services.ClientService$3.getClient,2019-04-29 23:14:33.426
services.DatabaseService$1.connect,2019-04-29 23:14:33.427
services.TransactionService$1.getAllTransactions,2019-04-29 23:14:33.681
services.DatabaseService$1.connect,2019-04-29 23:14:33.682
services.ClientService$3.getClient,2019-04-29 23:14:33.691
services.DatabaseService$1.connect,2019-04-29 23:14:33.692
services.TransactionService$1.getAllTransactions,2019-04-29 23:14:46.194
services.ClientService$3.getClient,2019-04-29 23:14:46.195
services.DatabaseService$1.connect,2019-04-29 23:14:46.201
services.DatabaseService$1.connect,2019-04-29 23:14:46.201
services.TransactionService$1.getAllTransactions,2019-04-29 23:14:46.565
services.DatabaseService$1.connect,2019-04-29 23:14:46.566
services.ClientService$3.getClient,2019-04-29 23:14:46.57
services.DatabaseService$1.connect,2019-04-29 23:14:46.571
services.TransactionService$1.getAllTransactions,2019-04-29 23:15:09.413
services.DatabaseService$1.connect,2019-04-29 23:15:09.414
services.ClientService$3.getClient,2019-04-29 23:15:09.418
services.DatabaseService$1.connect,2019-04-29 23:15:09.418
services.TransactionService$1.getAllTransactions,2019-04-29 23:15:09.715
services.DatabaseService$1.connect,2019-04-29 23:15:09.715
services.ClientService$3.getClient,2019-04-29 23:15:09.716
services.DatabaseService$1.connect,2019-04-29 23:15:09.716
services.TransactionService$1.getAllTransactions,2019-04-29 23:17:15.495
services.DatabaseService$1.connect,2019-04-29 23:17:15.496
services.ClientService$3.getClient,2019-04-29 23:17:15.514
services.DatabaseService$1.connect,2019-04-29 23:17:15.516
services.TransactionService$1.getAllTransactions,2019-04-29 23:17:15.784
services.DatabaseService$1.connect,2019-04-29 23:17:15.785
services.TransactionService$1.getAllTransactions,2019-04-29 23:17:25.888
services.DatabaseService$1.connect,2019-04-29 23:17:25.888
services.TransactionService$1.getAllTransactions,2019-04-29 23:17:26.125
services.DatabaseService$1.connect,2019-04-29 23:17:26.125
services.TransactionService$1.getAllTransactions,2019-04-29 23:23:02.47
services.DatabaseService$1.connect,2019-04-29 23:23:02.476
services.ClientService$3.getClient,2019-04-29 23:23:02.615
services.DatabaseService$1.connect,2019-04-29 23:23:02.616
services.CurencyService$5.getCurency,2019-04-29 23:23:02.618
services.DatabaseService$1.connect,2019-04-29 23:23:02.619
services.CurencyService$5.getCurency,2019-04-29 23:23:02.62
services.DatabaseService$1.connect,2019-04-29 23:23:02.62
services.ClientService$3.getClient,2019-04-29 23:23:02.621
services.DatabaseService$1.connect,2019-04-29 23:23:02.621
services.CurencyService$5.getCurency,2019-04-29 23:23:02.622
services.DatabaseService$1.connect,2019-04-29 23:23:02.622
services.CurencyService$5.getCurency,2019-04-29 23:23:02.623
services.DatabaseService$1.connect,2019-04-29 23:23:02.623
services.ClientService$3.getClient,2019-04-29 23:23:02.624
services.DatabaseService$1.connect,2019-04-29 23:23:02.625
services.CurencyService$5.getCurency,2019-04-29 23:23:02.627
services.DatabaseService$1.connect,2019-04-29 23:23:02.628
services.CurencyService$5.getCurency,2019-04-29 23:23:02.629
services.DatabaseService$1.connect,2019-04-29 23:23:02.629
services.ClientService$3.getClient,2019-04-29 23:23:02.63
services.DatabaseService$1.connect,2019-04-29 23:23:02.63
services.CurencyService$5.getCurency,2019-04-29 23:23:02.631
services.DatabaseService$1.connect,2019-04-29 23:23:02.631
services.CurencyService$5.getCurency,2019-04-29 23:23:02.633
services.DatabaseService$1.connect,2019-04-29 23:23:02.633
services.ClientService$3.getClient,2019-04-29 23:23:02.634
services.DatabaseService$1.connect,2019-04-29 23:23:02.635
services.CurencyService$5.getCurency,2019-04-29 23:23:02.635
services.DatabaseService$1.connect,2019-04-29 23:23:02.636
services.CurencyService$5.getCurency,2019-04-29 23:23:02.636
services.DatabaseService$1.connect,2019-04-29 23:23:02.637
services.ClientService$3.getClient,2019-04-29 23:23:02.637
services.DatabaseService$1.connect,2019-04-29 23:23:02.638
services.CurencyService$5.getCurency,2019-04-29 23:23:02.638
services.DatabaseService$1.connect,2019-04-29 23:23:02.639
services.CurencyService$5.getCurency,2019-04-29 23:23:02.64
services.DatabaseService$1.connect,2019-04-29 23:23:02.64
services.ClientService$3.getClient,2019-04-29 23:23:02.641
services.DatabaseService$1.connect,2019-04-29 23:23:02.641
services.CurencyService$5.getCurency,2019-04-29 23:23:02.642
services.DatabaseService$1.connect,2019-04-29 23:23:02.642
services.CurencyService$5.getCurency,2019-04-29 23:23:02.643
services.DatabaseService$1.connect,2019-04-29 23:23:02.643
services.ClientService$3.getClient,2019-04-29 23:23:02.644
services.DatabaseService$1.connect,2019-04-29 23:23:02.645
services.CurencyService$5.getCurency,2019-04-29 23:23:02.645
services.DatabaseService$1.connect,2019-04-29 23:23:02.645
services.CurencyService$5.getCurency,2019-04-29 23:23:02.646
services.DatabaseService$1.connect,2019-04-29 23:23:02.647
services.TransactionService$1.getAllTransactions,2019-04-29 23:23:02.871
services.DatabaseService$1.connect,2019-04-29 23:23:02.871
services.ClientService$3.getClient,2019-04-29 23:23:02.873
services.DatabaseService$1.connect,2019-04-29 23:23:02.873
services.CurencyService$5.getCurency,2019-04-29 23:23:02.874
services.DatabaseService$1.connect,2019-04-29 23:23:02.875
services.CurencyService$5.getCurency,2019-04-29 23:23:02.877
services.DatabaseService$1.connect,2019-04-29 23:23:02.877
services.ClientService$3.getClient,2019-04-29 23:23:02.879
services.DatabaseService$1.connect,2019-04-29 23:23:02.879
services.CurencyService$5.getCurency,2019-04-29 23:23:02.881
services.DatabaseService$1.connect,2019-04-29 23:23:02.882
services.CurencyService$5.getCurency,2019-04-29 23:23:02.883
services.DatabaseService$1.connect,2019-04-29 23:23:02.884
services.ClientService$3.getClient,2019-04-29 23:23:02.885
services.DatabaseService$1.connect,2019-04-29 23:23:02.885
services.CurencyService$5.getCurency,2019-04-29 23:23:02.888
services.DatabaseService$1.connect,2019-04-29 23:23:02.888
services.CurencyService$5.getCurency,2019-04-29 23:23:02.89
services.DatabaseService$1.connect,2019-04-29 23:23:02.89
services.ClientService$3.getClient,2019-04-29 23:23:02.892
services.DatabaseService$1.connect,2019-04-29 23:23:02.892
services.CurencyService$5.getCurency,2019-04-29 23:23:02.895
services.DatabaseService$1.connect,2019-04-29 23:23:02.895
services.CurencyService$5.getCurency,2019-04-29 23:23:02.897
services.DatabaseService$1.connect,2019-04-29 23:23:02.897
services.ClientService$3.getClient,2019-04-29 23:23:02.899
services.DatabaseService$1.connect,2019-04-29 23:23:02.899
services.CurencyService$5.getCurency,2019-04-29 23:23:02.9
services.DatabaseService$1.connect,2019-04-29 23:23:02.9
services.CurencyService$5.getCurency,2019-04-29 23:23:02.901
services.DatabaseService$1.connect,2019-04-29 23:23:02.901
services.ClientService$3.getClient,2019-04-29 23:23:02.902
services.DatabaseService$1.connect,2019-04-29 23:23:02.903
services.CurencyService$5.getCurency,2019-04-29 23:23:02.903
services.DatabaseService$1.connect,2019-04-29 23:23:02.904
services.CurencyService$5.getCurency,2019-04-29 23:23:02.904
services.DatabaseService$1.connect,2019-04-29 23:23:02.905
services.ClientService$3.getClient,2019-04-29 23:23:02.906
services.DatabaseService$1.connect,2019-04-29 23:23:02.906
services.CurencyService$5.getCurency,2019-04-29 23:23:02.907
services.DatabaseService$1.connect,2019-04-29 23:23:02.907
services.CurencyService$5.getCurency,2019-04-29 23:23:02.908
services.DatabaseService$1.connect,2019-04-29 23:23:02.908
services.ClientService$3.getClient,2019-04-29 23:23:02.91
services.DatabaseService$1.connect,2019-04-29 23:23:02.911
services.CurencyService$5.getCurency,2019-04-29 23:23:02.912
services.DatabaseService$1.connect,2019-04-29 23:23:02.913
services.CurencyService$5.getCurency,2019-04-29 23:23:02.914
services.DatabaseService$1.connect,2019-04-29 23:23:02.914
services.TransactionService$1.getAllTransactions,2019-04-29 23:24:33.275
services.DatabaseService$1.connect,2019-04-29 23:24:33.279
services.ClientService$3.getClient,2019-04-29 23:24:33.282
services.DatabaseService$1.connect,2019-04-29 23:24:33.283
services.CurencyService$5.getCurency,2019-04-29 23:24:33.287
services.DatabaseService$1.connect,2019-04-29 23:24:33.288
services.CurencyService$5.getCurency,2019-04-29 23:24:33.291
services.DatabaseService$1.connect,2019-04-29 23:24:33.291
services.ClientService$3.getClient,2019-04-29 23:24:33.293
services.DatabaseService$1.connect,2019-04-29 23:24:33.293
services.CurencyService$5.getCurency,2019-04-29 23:24:33.295
services.DatabaseService$1.connect,2019-04-29 23:24:33.295
services.CurencyService$5.getCurency,2019-04-29 23:24:33.298
services.DatabaseService$1.connect,2019-04-29 23:24:33.298
services.ClientService$3.getClient,2019-04-29 23:24:33.299
services.DatabaseService$1.connect,2019-04-29 23:24:33.3
services.CurencyService$5.getCurency,2019-04-29 23:24:33.301
services.DatabaseService$1.connect,2019-04-29 23:24:33.301
services.CurencyService$5.getCurency,2019-04-29 23:24:33.303
services.DatabaseService$1.connect,2019-04-29 23:24:33.303
services.ClientService$3.getClient,2019-04-29 23:24:33.304
services.DatabaseService$1.connect,2019-04-29 23:24:33.305
services.CurencyService$5.getCurency,2019-04-29 23:24:33.306
services.DatabaseService$1.connect,2019-04-29 23:24:33.307
services.CurencyService$5.getCurency,2019-04-29 23:24:33.308
services.DatabaseService$1.connect,2019-04-29 23:24:33.309
services.ClientService$3.getClient,2019-04-29 23:24:33.31
services.DatabaseService$1.connect,2019-04-29 23:24:33.31
services.CurencyService$5.getCurency,2019-04-29 23:24:33.312
services.DatabaseService$1.connect,2019-04-29 23:24:33.312
services.CurencyService$5.getCurency,2019-04-29 23:24:33.314
services.DatabaseService$1.connect,2019-04-29 23:24:33.314
services.ClientService$3.getClient,2019-04-29 23:24:33.316
services.DatabaseService$1.connect,2019-04-29 23:24:33.317
services.CurencyService$5.getCurency,2019-04-29 23:24:33.319
services.DatabaseService$1.connect,2019-04-29 23:24:33.319
services.CurencyService$5.getCurency,2019-04-29 23:24:33.322
services.DatabaseService$1.connect,2019-04-29 23:24:33.323
services.ClientService$3.getClient,2019-04-29 23:24:33.324
services.DatabaseService$1.connect,2019-04-29 23:24:33.324
services.CurencyService$5.getCurency,2019-04-29 23:24:33.325
services.DatabaseService$1.connect,2019-04-29 23:24:33.326
services.CurencyService$5.getCurency,2019-04-29 23:24:33.327
services.DatabaseService$1.connect,2019-04-29 23:24:33.327
services.ClientService$3.getClient,2019-04-29 23:24:33.331
services.DatabaseService$1.connect,2019-04-29 23:24:33.332
services.CurencyService$5.getCurency,2019-04-29 23:24:33.333
services.DatabaseService$1.connect,2019-04-29 23:24:33.334
services.CurencyService$5.getCurency,2019-04-29 23:24:33.337
services.DatabaseService$1.connect,2019-04-29 23:24:33.338
services.TransactionService$1.getAllTransactions,2019-04-29 23:24:33.646
services.DatabaseService$1.connect,2019-04-29 23:24:33.646
services.ClientService$3.getClient,2019-04-29 23:24:33.65
services.DatabaseService$1.connect,2019-04-29 23:24:33.65
services.CurencyService$5.getCurency,2019-04-29 23:24:33.652
services.DatabaseService$1.connect,2019-04-29 23:24:33.653
services.CurencyService$5.getCurency,2019-04-29 23:24:33.654
services.DatabaseService$1.connect,2019-04-29 23:24:33.654
services.ClientService$3.getClient,2019-04-29 23:24:33.657
services.DatabaseService$1.connect,2019-04-29 23:24:33.657
services.CurencyService$5.getCurency,2019-04-29 23:24:33.658
services.DatabaseService$1.connect,2019-04-29 23:24:33.659
services.CurencyService$5.getCurency,2019-04-29 23:24:33.661
services.DatabaseService$1.connect,2019-04-29 23:24:33.662
services.ClientService$3.getClient,2019-04-29 23:24:33.663
services.DatabaseService$1.connect,2019-04-29 23:24:33.664
services.CurencyService$5.getCurency,2019-04-29 23:24:33.666
services.DatabaseService$1.connect,2019-04-29 23:24:33.666
services.CurencyService$5.getCurency,2019-04-29 23:24:33.668
services.DatabaseService$1.connect,2019-04-29 23:24:33.668
services.ClientService$3.getClient,2019-04-29 23:24:33.67
services.DatabaseService$1.connect,2019-04-29 23:24:33.67
services.CurencyService$5.getCurency,2019-04-29 23:24:33.671
services.DatabaseService$1.connect,2019-04-29 23:24:33.671
services.CurencyService$5.getCurency,2019-04-29 23:24:33.672
services.DatabaseService$1.connect,2019-04-29 23:24:33.673
services.ClientService$3.getClient,2019-04-29 23:24:33.674
services.DatabaseService$1.connect,2019-04-29 23:24:33.674
services.CurencyService$5.getCurency,2019-04-29 23:24:33.675
services.DatabaseService$1.connect,2019-04-29 23:24:33.675
services.CurencyService$5.getCurency,2019-04-29 23:24:33.677
services.DatabaseService$1.connect,2019-04-29 23:24:33.677
services.ClientService$3.getClient,2019-04-29 23:24:33.679
services.DatabaseService$1.connect,2019-04-29 23:24:33.68
services.CurencyService$5.getCurency,2019-04-29 23:24:33.682
services.DatabaseService$1.connect,2019-04-29 23:24:33.682
services.CurencyService$5.getCurency,2019-04-29 23:24:33.683
services.DatabaseService$1.connect,2019-04-29 23:24:33.683
services.ClientService$3.getClient,2019-04-29 23:24:33.685
services.DatabaseService$1.connect,2019-04-29 23:24:33.685
services.CurencyService$5.getCurency,2019-04-29 23:24:33.686
services.DatabaseService$1.connect,2019-04-29 23:24:33.687
services.CurencyService$5.getCurency,2019-04-29 23:24:33.691
services.DatabaseService$1.connect,2019-04-29 23:24:33.691
services.ClientService$3.getClient,2019-04-29 23:24:33.697
services.DatabaseService$1.connect,2019-04-29 23:24:33.698
services.CurencyService$5.getCurency,2019-04-29 23:24:33.7
services.DatabaseService$1.connect,2019-04-29 23:24:33.7
services.CurencyService$5.getCurency,2019-04-29 23:24:33.701
services.DatabaseService$1.connect,2019-04-29 23:24:33.702
services.TransactionService$1.getAllTransactions,2019-04-29 23:24:55.073
services.DatabaseService$1.connect,2019-04-29 23:24:55.073
services.ClientService$3.getClient,2019-04-29 23:24:55.075
services.DatabaseService$1.connect,2019-04-29 23:24:55.076
services.CurencyService$5.getCurency,2019-04-29 23:24:55.079
services.DatabaseService$1.connect,2019-04-29 23:24:55.08
services.CurencyService$5.getCurency,2019-04-29 23:24:55.08
services.DatabaseService$1.connect,2019-04-29 23:24:55.081
services.ClientService$3.getClient,2019-04-29 23:24:55.082
services.DatabaseService$1.connect,2019-04-29 23:24:55.083
services.CurencyService$5.getCurency,2019-04-29 23:24:55.084
services.DatabaseService$1.connect,2019-04-29 23:24:55.085
services.CurencyService$5.getCurency,2019-04-29 23:24:55.086
services.DatabaseService$1.connect,2019-04-29 23:24:55.086
services.ClientService$3.getClient,2019-04-29 23:24:55.088
services.DatabaseService$1.connect,2019-04-29 23:24:55.088
services.CurencyService$5.getCurency,2019-04-29 23:24:55.089
services.DatabaseService$1.connect,2019-04-29 23:24:55.089
services.CurencyService$5.getCurency,2019-04-29 23:24:55.09
services.DatabaseService$1.connect,2019-04-29 23:24:55.091
services.ClientService$3.getClient,2019-04-29 23:24:55.092
services.DatabaseService$1.connect,2019-04-29 23:24:55.092
services.CurencyService$5.getCurency,2019-04-29 23:24:55.093
services.DatabaseService$1.connect,2019-04-29 23:24:55.094
services.CurencyService$5.getCurency,2019-04-29 23:24:55.095
services.DatabaseService$1.connect,2019-04-29 23:24:55.095
services.ClientService$3.getClient,2019-04-29 23:24:55.096
services.DatabaseService$1.connect,2019-04-29 23:24:55.096
services.CurencyService$5.getCurency,2019-04-29 23:24:55.097
services.DatabaseService$1.connect,2019-04-29 23:24:55.098
services.CurencyService$5.getCurency,2019-04-29 23:24:55.098
services.DatabaseService$1.connect,2019-04-29 23:24:55.099
services.ClientService$3.getClient,2019-04-29 23:24:55.1
services.DatabaseService$1.connect,2019-04-29 23:24:55.101
services.CurencyService$5.getCurency,2019-04-29 23:24:55.103
services.DatabaseService$1.connect,2019-04-29 23:24:55.104
services.CurencyService$5.getCurency,2019-04-29 23:24:55.106
services.DatabaseService$1.connect,2019-04-29 23:24:55.106
services.ClientService$3.getClient,2019-04-29 23:24:55.107
services.DatabaseService$1.connect,2019-04-29 23:24:55.107
services.CurencyService$5.getCurency,2019-04-29 23:24:55.108
services.DatabaseService$1.connect,2019-04-29 23:24:55.109
services.CurencyService$5.getCurency,2019-04-29 23:24:55.109
services.DatabaseService$1.connect,2019-04-29 23:24:55.109
services.ClientService$3.getClient,2019-04-29 23:24:55.111
services.DatabaseService$1.connect,2019-04-29 23:24:55.111
services.CurencyService$5.getCurency,2019-04-29 23:24:55.112
services.DatabaseService$1.connect,2019-04-29 23:24:55.113
services.CurencyService$5.getCurency,2019-04-29 23:24:55.114
services.DatabaseService$1.connect,2019-04-29 23:24:55.114
services.TransactionService$1.getAllTransactions,2019-04-29 23:24:55.365
services.DatabaseService$1.connect,2019-04-29 23:24:55.366
services.ClientService$3.getClient,2019-04-29 23:24:55.367
services.DatabaseService$1.connect,2019-04-29 23:24:55.367
services.CurencyService$5.getCurency,2019-04-29 23:24:55.368
services.DatabaseService$1.connect,2019-04-29 23:24:55.368
services.CurencyService$5.getCurency,2019-04-29 23:24:55.369
services.DatabaseService$1.connect,2019-04-29 23:24:55.369
services.ClientService$3.getClient,2019-04-29 23:24:55.37
services.DatabaseService$1.connect,2019-04-29 23:24:55.371
services.CurencyService$5.getCurency,2019-04-29 23:24:55.371
services.DatabaseService$1.connect,2019-04-29 23:24:55.372
services.CurencyService$5.getCurency,2019-04-29 23:24:55.373
services.DatabaseService$1.connect,2019-04-29 23:24:55.373
services.ClientService$3.getClient,2019-04-29 23:24:55.374
services.DatabaseService$1.connect,2019-04-29 23:24:55.374
services.CurencyService$5.getCurency,2019-04-29 23:24:55.375
services.DatabaseService$1.connect,2019-04-29 23:24:55.375
services.CurencyService$5.getCurency,2019-04-29 23:24:55.376
services.DatabaseService$1.connect,2019-04-29 23:24:55.376
services.ClientService$3.getClient,2019-04-29 23:24:55.377
services.DatabaseService$1.connect,2019-04-29 23:24:55.377
services.CurencyService$5.getCurency,2019-04-29 23:24:55.379
services.DatabaseService$1.connect,2019-04-29 23:24:55.38
services.CurencyService$5.getCurency,2019-04-29 23:24:55.381
services.DatabaseService$1.connect,2019-04-29 23:24:55.381
services.ClientService$3.getClient,2019-04-29 23:24:55.382
services.DatabaseService$1.connect,2019-04-29 23:24:55.384
services.CurencyService$5.getCurency,2019-04-29 23:24:55.385
services.DatabaseService$1.connect,2019-04-29 23:24:55.386
services.CurencyService$5.getCurency,2019-04-29 23:24:55.387
services.DatabaseService$1.connect,2019-04-29 23:24:55.387
services.ClientService$3.getClient,2019-04-29 23:24:55.388
services.DatabaseService$1.connect,2019-04-29 23:24:55.389
services.CurencyService$5.getCurency,2019-04-29 23:24:55.39
services.DatabaseService$1.connect,2019-04-29 23:24:55.391
services.CurencyService$5.getCurency,2019-04-29 23:24:55.393
services.DatabaseService$1.connect,2019-04-29 23:24:55.393
services.ClientService$3.getClient,2019-04-29 23:24:55.395
services.DatabaseService$1.connect,2019-04-29 23:24:55.395
services.CurencyService$5.getCurency,2019-04-29 23:24:55.396
services.DatabaseService$1.connect,2019-04-29 23:24:55.397
services.CurencyService$5.getCurency,2019-04-29 23:24:55.398
services.DatabaseService$1.connect,2019-04-29 23:24:55.398
services.ClientService$3.getClient,2019-04-29 23:24:55.399
services.DatabaseService$1.connect,2019-04-29 23:24:55.399
services.CurencyService$5.getCurency,2019-04-29 23:24:55.4
services.DatabaseService$1.connect,2019-04-29 23:24:55.401
services.CurencyService$5.getCurency,2019-04-29 23:24:55.402
services.DatabaseService$1.connect,2019-04-29 23:24:55.402
services.TransactionService$1.getAllTransactions,2019-04-29 23:26:05.595
services.DatabaseService$1.connect,2019-04-29 23:26:05.607
services.ClientService$3.getClient,2019-04-29 23:26:05.633
services.DatabaseService$1.connect,2019-04-29 23:26:05.634
services.CurencyService$5.getCurency,2019-04-29 23:26:05.639
services.DatabaseService$1.connect,2019-04-29 23:26:05.64
services.CurencyService$5.getCurency,2019-04-29 23:26:05.645
services.DatabaseService$1.connect,2019-04-29 23:26:05.648
services.ClientService$3.getClient,2019-04-29 23:26:05.652
services.DatabaseService$1.connect,2019-04-29 23:26:05.653
services.CurencyService$5.getCurency,2019-04-29 23:26:05.655
services.DatabaseService$1.connect,2019-04-29 23:26:05.657
services.CurencyService$5.getCurency,2019-04-29 23:26:05.658
services.DatabaseService$1.connect,2019-04-29 23:26:05.658
services.ClientService$3.getClient,2019-04-29 23:26:05.66
services.DatabaseService$1.connect,2019-04-29 23:26:05.661
services.CurencyService$5.getCurency,2019-04-29 23:26:05.662
services.DatabaseService$1.connect,2019-04-29 23:26:05.664
services.CurencyService$5.getCurency,2019-04-29 23:26:05.665
services.DatabaseService$1.connect,2019-04-29 23:26:05.666
services.ClientService$3.getClient,2019-04-29 23:26:05.669
services.DatabaseService$1.connect,2019-04-29 23:26:05.672
services.CurencyService$5.getCurency,2019-04-29 23:26:05.675
services.DatabaseService$1.connect,2019-04-29 23:26:05.676
services.CurencyService$5.getCurency,2019-04-29 23:26:05.678
services.DatabaseService$1.connect,2019-04-29 23:26:05.678
services.ClientService$3.getClient,2019-04-29 23:26:05.681
services.DatabaseService$1.connect,2019-04-29 23:26:05.682
services.CurencyService$5.getCurency,2019-04-29 23:26:05.684
services.DatabaseService$1.connect,2019-04-29 23:26:05.685
services.CurencyService$5.getCurency,2019-04-29 23:26:05.688
services.DatabaseService$1.connect,2019-04-29 23:26:05.689
services.ClientService$3.getClient,2019-04-29 23:26:05.69
services.DatabaseService$1.connect,2019-04-29 23:26:05.691
services.CurencyService$5.getCurency,2019-04-29 23:26:05.693
services.DatabaseService$1.connect,2019-04-29 23:26:05.695
services.CurencyService$5.getCurency,2019-04-29 23:26:05.697
services.DatabaseService$1.connect,2019-04-29 23:26:05.697
services.ClientService$3.getClient,2019-04-29 23:26:05.7
services.DatabaseService$1.connect,2019-04-29 23:26:05.7
services.CurencyService$5.getCurency,2019-04-29 23:26:05.701
services.DatabaseService$1.connect,2019-04-29 23:26:05.702
services.CurencyService$5.getCurency,2019-04-29 23:26:05.703
services.DatabaseService$1.connect,2019-04-29 23:26:05.704
services.ClientService$3.getClient,2019-04-29 23:26:05.706
services.DatabaseService$1.connect,2019-04-29 23:26:05.707
services.CurencyService$5.getCurency,2019-04-29 23:26:05.71
services.DatabaseService$1.connect,2019-04-29 23:26:05.712
services.CurencyService$5.getCurency,2019-04-29 23:26:05.714
services.DatabaseService$1.connect,2019-04-29 23:26:05.714
services.TransactionService$1.getAllTransactions,2019-04-29 23:26:06.107
services.DatabaseService$1.connect,2019-04-29 23:26:06.107
services.ClientService$3.getClient,2019-04-29 23:26:06.108
services.DatabaseService$1.connect,2019-04-29 23:26:06.108
services.CurencyService$5.getCurency,2019-04-29 23:26:06.109
services.DatabaseService$1.connect,2019-04-29 23:26:06.11
services.CurencyService$5.getCurency,2019-04-29 23:26:06.11
services.DatabaseService$1.connect,2019-04-29 23:26:06.111
services.ClientService$3.getClient,2019-04-29 23:26:06.112
services.DatabaseService$1.connect,2019-04-29 23:26:06.112
services.CurencyService$5.getCurency,2019-04-29 23:26:06.113
services.DatabaseService$1.connect,2019-04-29 23:26:06.113
services.CurencyService$5.getCurency,2019-04-29 23:26:06.114
services.DatabaseService$1.connect,2019-04-29 23:26:06.115
services.ClientService$3.getClient,2019-04-29 23:26:06.116
services.DatabaseService$1.connect,2019-04-29 23:26:06.116
services.CurencyService$5.getCurency,2019-04-29 23:26:06.118
services.DatabaseService$1.connect,2019-04-29 23:26:06.119
services.CurencyService$5.getCurency,2019-04-29 23:26:06.12
services.DatabaseService$1.connect,2019-04-29 23:26:06.12
services.ClientService$3.getClient,2019-04-29 23:26:06.121
services.DatabaseService$1.connect,2019-04-29 23:26:06.121
services.CurencyService$5.getCurency,2019-04-29 23:26:06.122
services.DatabaseService$1.connect,2019-04-29 23:26:06.122
services.CurencyService$5.getCurency,2019-04-29 23:26:06.123
services.DatabaseService$1.connect,2019-04-29 23:26:06.123
services.ClientService$3.getClient,2019-04-29 23:26:06.124
services.DatabaseService$1.connect,2019-04-29 23:26:06.124
services.CurencyService$5.getCurency,2019-04-29 23:26:06.125
services.DatabaseService$1.connect,2019-04-29 23:26:06.125
services.CurencyService$5.getCurency,2019-04-29 23:26:06.128
services.DatabaseService$1.connect,2019-04-29 23:26:06.128
services.ClientService$3.getClient,2019-04-29 23:26:06.129
services.DatabaseService$1.connect,2019-04-29 23:26:06.13
services.CurencyService$5.getCurency,2019-04-29 23:26:06.131
services.DatabaseService$1.connect,2019-04-29 23:26:06.132
services.CurencyService$5.getCurency,2019-04-29 23:26:06.133
services.DatabaseService$1.connect,2019-04-29 23:26:06.134
services.ClientService$3.getClient,2019-04-29 23:26:06.135
services.DatabaseService$1.connect,2019-04-29 23:26:06.136
services.CurencyService$5.getCurency,2019-04-29 23:26:06.138
services.DatabaseService$1.connect,2019-04-29 23:26:06.138
services.CurencyService$5.getCurency,2019-04-29 23:26:06.139
services.DatabaseService$1.connect,2019-04-29 23:26:06.139
services.ClientService$3.getClient,2019-04-29 23:26:06.14
services.DatabaseService$1.connect,2019-04-29 23:26:06.14
services.CurencyService$5.getCurency,2019-04-29 23:26:06.141
services.DatabaseService$1.connect,2019-04-29 23:26:06.142
services.CurencyService$5.getCurency,2019-04-29 23:26:06.142
services.DatabaseService$1.connect,2019-04-29 23:26:06.143
services.TransactionService$1.getAllTransactions,2019-04-30 10:30:41.33
services.DatabaseService$1.connect,2019-04-30 10:30:41.342
services.TransactionService$1.getAllTransactions,2019-04-30 10:31:44.147
services.DatabaseService$1.connect,2019-04-30 10:31:44.162
services.TransactionService$1.getAllTransactions,2019-04-30 10:33:15.151
services.DatabaseService$1.connect,2019-04-30 10:33:15.163
services.TransactionService$1.getAllTransactions,2019-04-30 10:33:33.132
services.DatabaseService$1.connect,2019-04-30 10:33:33.142
services.TransactionService$1.getAllTransactions,2019-04-30 10:33:43.265
services.DatabaseService$1.connect,2019-04-30 10:33:43.275
services.TransactionService$1.getAllTransactions,2019-04-30 10:35:23.534
services.DatabaseService$1.connect,2019-04-30 10:35:23.543
services.TransactionService$1.getAllTransactions,2019-04-30 10:36:50.001
services.DatabaseService$1.connect,2019-04-30 10:36:50.009
services.TransactionService$1.getAllTransactions,2019-04-30 10:36:59.219
services.DatabaseService$1.connect,2019-04-30 10:36:59.228
services.TransactionService$1.getAllTransactions,2019-04-30 10:38:06.378
services.DatabaseService$1.connect,2019-04-30 10:38:06.389
services.TransactionService$1.getAllTransactions,2019-04-30 10:38:50.522
services.DatabaseService$1.connect,2019-04-30 10:38:50.532
services.TransactionService$1.getAllTransactions,2019-04-30 10:40:29.974
services.DatabaseService$1.connect,2019-04-30 10:40:29.985
services.TransactionService$1.getAllTransactions,2019-04-30 10:42:43.815
services.DatabaseService$1.connect,2019-04-30 10:42:43.873
services.TransactionService$1.getAllTransactions,2019-04-30 10:45:18.507
services.DatabaseService$1.connect,2019-04-30 10:45:18.512
services.TransactionService$1.getAllTransactions,2019-04-30 10:46:41.333
services.DatabaseService$1.connect,2019-04-30 10:46:41.336
services.TransactionService$1.getAllTransactions,2019-04-30 10:54:27.615
services.DatabaseService$1.connect,2019-04-30 10:54:27.622
services.TransactionService$1.getAllTransactions,2019-04-30 10:54:38.876
services.DatabaseService$1.connect,2019-04-30 10:54:38.877
services.TransactionService$1.getAllTransactions,2019-04-30 10:54:39.381
services.DatabaseService$1.connect,2019-04-30 10:54:39.382
services.TransactionService$1.getAllTransactions,2019-04-30 10:58:01.084
services.DatabaseService$1.connect,2019-04-30 10:58:01.093
services.TransactionService$1.getAllTransactions,2019-04-30 10:58:01.634
services.DatabaseService$1.connect,2019-04-30 10:58:01.634
services.TransactionService$1.getAllTransactions,2019-04-30 11:00:33.399
services.DatabaseService$1.connect,2019-04-30 11:00:33.409
services.TransactionService$1.getAllTransactions,2019-04-30 11:00:34.022
services.DatabaseService$1.connect,2019-04-30 11:00:34.023
services.TransactionService$1.getAllTransactions,2019-04-30 11:00:41.54
services.DatabaseService$1.connect,2019-04-30 11:00:41.542
services.TransactionService$1.getAllTransactions,2019-04-30 11:00:41.752
services.DatabaseService$1.connect,2019-04-30 11:00:41.753
services.TransactionService$1.getAllTransactions,2019-04-30 11:00:56.963
services.DatabaseService$1.connect,2019-04-30 11:00:56.963
services.TransactionService$1.getAllTransactions,2019-04-30 11:00:57.179
services.DatabaseService$1.connect,2019-04-30 11:00:57.18
services.TransactionService$1.getAllTransactions,2019-04-30 11:01:14.237
services.DatabaseService$1.connect,2019-04-30 11:01:14.238
services.TransactionService$1.getAllTransactions,2019-04-30 11:01:14.45
services.DatabaseService$1.connect,2019-04-30 11:01:14.451
services.TransactionService$1.getAllTransactions,2019-04-30 11:01:49.231
services.DatabaseService$1.connect,2019-04-30 11:01:49.233
services.TransactionService$1.getAllTransactions,2019-04-30 11:01:49.515
services.DatabaseService$1.connect,2019-04-30 11:01:49.515
services.TransactionService$1.getAllTransactions,2019-04-30 11:02:33.586
services.DatabaseService$1.connect,2019-04-30 11:02:33.587
services.TransactionService$1.getAllTransactions,2019-04-30 11:02:33.736
services.DatabaseService$1.connect,2019-04-30 11:02:33.738
services.RatesService$3.getRONrates,2019-04-30 11:02:33.903
services.TransactionService$1.getAllTransactions,2019-04-30 11:02:46.222
services.DatabaseService$1.connect,2019-04-30 11:02:46.223
services.TransactionService$1.getAllTransactions,2019-04-30 11:02:46.559
services.DatabaseService$1.connect,2019-04-30 11:02:46.559
services.RatesService$3.getRONrates,2019-04-30 11:02:46.563
services.RatesService$3.getRONrates,2019-04-30 11:03:07.065
services.TransactionService$1.getAllTransactions,2019-04-30 11:03:07.065
services.DatabaseService$1.connect,2019-04-30 11:03:07.067
services.TransactionService$1.getAllTransactions,2019-04-30 11:03:07.574
services.RatesService$3.getRONrates,2019-04-30 11:03:07.575
services.DatabaseService$1.connect,2019-04-30 11:03:07.575
services.TransactionService$1.getAllTransactions,2019-04-30 11:05:00.666
services.DatabaseService$1.connect,2019-04-30 11:05:00.673
services.TransactionService$1.getAllTransactions,2019-04-30 11:05:01.278
services.DatabaseService$1.connect,2019-04-30 11:05:01.278
services.RatesService$3.getRONrates,2019-04-30 11:05:01.287
services.TransactionService$1.getAllTransactions,2019-04-30 11:05:13.586
services.RatesService$3.getRONrates,2019-04-30 11:05:13.589
services.DatabaseService$1.connect,2019-04-30 11:05:13.589
services.TransactionService$1.getAllTransactions,2019-04-30 11:05:13.956
services.RatesService$3.getRONrates,2019-04-30 11:05:13.958
services.DatabaseService$1.connect,2019-04-30 11:05:13.958
services.TransactionService$1.getAllTransactions,2019-04-30 11:05:25.874
services.DatabaseService$1.connect,2019-04-30 11:05:25.874
services.RatesService$3.getRONrates,2019-04-30 11:05:25.873
services.RatesService$3.getRONrates,2019-04-30 11:05:26.16
services.TransactionService$1.getAllTransactions,2019-04-30 11:05:26.166
services.DatabaseService$1.connect,2019-04-30 11:05:26.17
services.TransactionService$1.getAllTransactions,2019-04-30 11:05:42.399
services.DatabaseService$1.connect,2019-04-30 11:05:42.401
services.RatesService$3.getRONrates,2019-04-30 11:05:42.401
services.TransactionService$1.getAllTransactions,2019-04-30 11:05:42.657
services.DatabaseService$1.connect,2019-04-30 11:05:42.658
services.RatesService$3.getRONrates,2019-04-30 11:05:42.658
services.RatesService$3.getRONrates,2019-04-30 11:05:59.23
services.TransactionService$1.getAllTransactions,2019-04-30 11:05:59.23
services.DatabaseService$1.connect,2019-04-30 11:05:59.234
services.RatesService$3.getRONrates,2019-04-30 11:05:59.997
services.TransactionService$1.getAllTransactions,2019-04-30 11:05:59.999
services.DatabaseService$1.connect,2019-04-30 11:06:00.001
services.TransactionService$1.getAllTransactions,2019-04-30 11:06:29.733
services.DatabaseService$1.connect,2019-04-30 11:06:29.734
services.RatesService$3.getRONrates,2019-04-30 11:06:29.733
services.RatesService$3.getRONrates,2019-04-30 11:06:30.677
services.TransactionService$1.getAllTransactions,2019-04-30 11:06:30.682
services.DatabaseService$1.connect,2019-04-30 11:06:30.683
services.TransactionService$1.getAllTransactions,2019-04-30 11:07:05.204
services.DatabaseService$1.connect,2019-04-30 11:07:05.207
services.RatesService$3.getRONrates,2019-04-30 11:07:05.219
services.RatesService$3.getRONrates,2019-04-30 11:07:05.635
services.TransactionService$1.getAllTransactions,2019-04-30 11:07:05.638
services.DatabaseService$1.connect,2019-04-30 11:07:05.638
services.TransactionService$1.getAllTransactions,2019-04-30 11:07:24.618
services.RatesService$3.getRONrates,2019-04-30 11:07:24.618
services.DatabaseService$1.connect,2019-04-30 11:07:24.618
services.RatesService$3.getRONrates,2019-04-30 11:07:24.949
services.TransactionService$1.getAllTransactions,2019-04-30 11:07:24.95
services.DatabaseService$1.connect,2019-04-30 11:07:24.95
services.TransactionService$1.getAllTransactions,2019-04-30 11:08:46.871
services.RatesService$3.getRONrates,2019-04-30 11:08:46.871
services.DatabaseService$1.connect,2019-04-30 11:08:46.875
services.RatesService$3.getRONrates,2019-04-30 11:08:47.356
services.TransactionService$1.getAllTransactions,2019-04-30 11:08:47.356
services.DatabaseService$1.connect,2019-04-30 11:08:47.36
services.TransactionService$1.getAllTransactions,2019-04-30 11:09:07.732
services.DatabaseService$1.connect,2019-04-30 11:09:07.733
services.RatesService$3.getRONrates,2019-04-30 11:09:07.733
services.TransactionService$1.getAllTransactions,2019-04-30 11:09:07.938
services.RatesService$3.getRONrates,2019-04-30 11:09:07.937
services.DatabaseService$1.connect,2019-04-30 11:09:07.94
services.RatesService$3.getRONrates,2019-04-30 11:09:39.672
services.TransactionService$1.getAllTransactions,2019-04-30 11:09:39.673
services.DatabaseService$1.connect,2019-04-30 11:09:39.673
services.RatesService$3.getRONrates,2019-04-30 11:09:50.372
services.TransactionService$1.getAllTransactions,2019-04-30 11:09:50.372
services.DatabaseService$1.connect,2019-04-30 11:09:50.373
services.RatesService$3.getRONrates,2019-04-30 11:11:03.758
services.TransactionService$1.getAllTransactions,2019-04-30 11:11:03.759
services.DatabaseService$1.connect,2019-04-30 11:11:03.766
services.TransactionService$1.getAllTransactions,2019-04-30 11:12:20.11
services.RatesService$3.getRONrates,2019-04-30 11:12:20.109
services.DatabaseService$1.connect,2019-04-30 11:12:20.114
services.TransactionService$1.getAllTransactions,2019-04-30 11:12:20.444
services.RatesService$3.getRONrates,2019-04-30 11:12:20.445
services.DatabaseService$1.connect,2019-04-30 11:12:20.45
services.TransactionService$1.getAllTransactions,2019-04-30 11:14:55.665
services.RatesService$3.getRONrates,2019-04-30 11:14:55.667
services.DatabaseService$1.connect,2019-04-30 11:14:55.668
services.TransactionService$1.getAllTransactions,2019-04-30 11:14:56.016
services.DatabaseService$1.connect,2019-04-30 11:14:56.016
services.RatesService$3.getRONrates,2019-04-30 11:14:56.081
services.TransactionService$1.getAllTransactions,2019-04-30 11:15:01.971
services.DatabaseService$1.connect,2019-04-30 11:15:01.971
services.RatesService$3.getRONrates,2019-04-30 11:15:01.971
services.TransactionService$1.getAllTransactions,2019-04-30 11:15:02.21
services.DatabaseService$1.connect,2019-04-30 11:15:02.21
services.RatesService$3.getRONrates,2019-04-30 11:15:02.209
services.RatesService$3.getRONrates,2019-04-30 11:15:20.085
services.TransactionService$1.getAllTransactions,2019-04-30 11:15:20.087
services.DatabaseService$1.connect,2019-04-30 11:15:20.087
services.RatesService$3.getRONrates,2019-04-30 11:15:20.319
services.TransactionService$1.getAllTransactions,2019-04-30 11:15:20.319
services.DatabaseService$1.connect,2019-04-30 11:15:20.32
services.TransactionService$1.getAllTransactions,2019-04-30 11:15:32.646
services.RatesService$3.getRONrates,2019-04-30 11:15:32.646
services.DatabaseService$1.connect,2019-04-30 11:15:32.646
services.TransactionService$1.getAllTransactions,2019-04-30 11:15:32.845
services.DatabaseService$1.connect,2019-04-30 11:15:32.848
services.RatesService$3.getRONrates,2019-04-30 11:15:32.873
services.TransactionService$1.getAllTransactions,2019-04-30 11:15:54.694
services.DatabaseService$1.connect,2019-04-30 11:15:54.695
services.RatesService$3.getRONrates,2019-04-30 11:15:54.696
services.TransactionService$1.getAllTransactions,2019-04-30 11:15:54.861
services.RatesService$3.getRONrates,2019-04-30 11:15:54.861
services.DatabaseService$1.connect,2019-04-30 11:15:54.862
services.TransactionService$1.getAllTransactions,2019-04-30 11:17:01.475
services.RatesService$3.getRONrates,2019-04-30 11:17:01.475
services.DatabaseService$1.connect,2019-04-30 11:17:01.479
services.TransactionService$1.getAllTransactions,2019-04-30 11:17:01.796
services.DatabaseService$1.connect,2019-04-30 11:17:01.797
services.RatesService$3.getRONrates,2019-04-30 11:17:01.796
services.RatesService$3.getRONrates,2019-04-30 11:18:08.679
services.TransactionService$1.getAllTransactions,2019-04-30 11:18:08.7
services.DatabaseService$1.connect,2019-04-30 11:18:08.703
services.TransactionService$1.getAllTransactions,2019-04-30 11:18:08.941
services.RatesService$3.getRONrates,2019-04-30 11:18:08.941
services.DatabaseService$1.connect,2019-04-30 11:18:08.964
services.RatesService$3.getRONrates,2019-04-30 11:18:28.724
services.TransactionService$1.getAllTransactions,2019-04-30 11:18:28.725
services.DatabaseService$1.connect,2019-04-30 11:18:28.727
services.TransactionService$1.getAllTransactions,2019-04-30 11:18:28.991
services.DatabaseService$1.connect,2019-04-30 11:18:28.991
services.RatesService$3.getRONrates,2019-04-30 11:18:28.993
